*** Life<FredkinCell> 14x35 ***

Generation = 0, Population = 37.
-----------------------00----------
--------------------------0--------
-0-0-------0------------0-----0----
-------0---------------------0-----
------------0---0------------------
0------0----------------------0----
-------------0-----0----0--0-------
---------------0--------------00---
-------0-0-------------------------
-----00-----------------------0----
-----0--------------------------00-
-------------0-0----------------00-
-------------0-0--0----------------
-----------------------------------

Generation = 1, Population = 109.
----------------------01100--------
-0-0-------0-----------0-0-0--0----
0---0--0--0-0----------0-00----0---
-0-0--0-0--00---0-------0---0------
0----------0-0-0-0-----------00----
-0----0-0---00--0--0----0--0-0-0---
0------0----0-00--0-0--0-00-0--0---
-------0-0---00-0--0----0--0-0110--
-----0----0----0---------------0---
----0-1--0-------------------0-000-
----01-------0-0--------------00--0
-----0------01-10-0------------0--0
------------01-100-0------------00-
-------------0-0--0----------------

Generation = 2, Population = 123.
-0-0-------0---------012-11---0----
-------0----------------0---00-----
-0-0-0---0--10--0-----010-1-0---0--
0----0-0-0----------------00--00---
-0-0------01-1----00-------0--1----
0-0--0-0-0-----0------------01010--
-------1-0-01--100---00--11--0-----
0----001-----1---0----------01--10-
-------0-0-0-0-----0----0--0----00-
---01--00----0--------------0-01-1-
---0-----0---1-1--0-----------11--1
-----10----0-2-2-0-------------1--1
-----0-----0-2-211--0-----------11-
-------------1-1----------------00-

Generation = 3, Population = 210.
0---0--0--0-0-------01-312200--0---
-----00-00-000--0----0-01--0-1--0--
-----10-01002100-0---01---201-0--0-
-0--01---1-00---0-00--0000---0-1---
0-0-0----012--00-0110------1---00--
-0--0--1-1--0001-000-00--00-121-10-
--0------1-12-0---0-011002200--0-0-
-0--01-20----200-100-00-000-1-11--0
0--000--0-----0--00-0--0-00-000--10
--0-201-10-00-00--00----0-------02-
--01-100--000--20--0--------00-20-2
---00-10-001----01--0----------2--2
----01----01---3--00-0-------------
-----0-----002-2-0--0----------0--0

*** Life<FredkinCell> 24x26 ***

Generation = 0, Population = 53.
-----------00-----0-------
--0-----------------00----
----------0---------------
--0-0---------------------
---------0--0-----00------
---0---------0-----------0
--------------------------
0------0------------------
-------------0-0----------
--------------------------
---------00---0--------0-0
-0-------0-------0--------
--------------0-------0---
--------------------0--0--
-----0--------------------
-----------0--------------
-------0----0-------------
------00----0--0----------
-------0---0--------------
--0-------0-----0---------
------------------0-------
-------0------------------
0---------0---------------
0-----0------0--------0---

Generation = 1, Population = 160.
--0-------0110---0-000----
-0-0------000-----00110---
----0----0-0--------00----
-0---0---00-0-----00------
--000---0-00-----0110----0
--0-0----0----0---00----0-
0--0---0-----0-----------0
-0----0-0----0-0----------
0------0----0---0---------
---------00--000-------0-0
-0------0-10-0-0-0----0---
0-0-----01------0-0---00-0
-0-------0---0-0-0--00----
-----0--------0----0-0--0-
----0-0----0--------0--0--
-----0-0--0---------------
-------10---10-0----------
-----0110---100-0---------
--0----10------00---------
-0-0---0-0-----0-00-------
--0----0--0-----00-0------
0-----0-0-0-------0-------
10----00-0-0-0--------0---
10---0-0--0-0-0------0-0--

Generation = 2, Population = 176.
---------0-2210-0-0-1-----
0-0---------------11--10--
--------01-10------0------
0--00-0------0------00---0
-------0---1--0-01--10----
001-10-0---0---0-------0-0
---------0--01-0--00------
0-00-0---0---1-----------0
---------000-000-0-----0-0
00-----0-1-------0--------
-------01--1-1010----010--
---0---0---0---0---00--1--
-----0---10-0-0-0---1--000
-0-------0-0-----00--10--0
---0--------0-0-------0---
------01-0--00-0----0--0--
-------2-000--0-----------
--0-01--10-0-11-10--------
-----0-2----00----0-------
0---0-0-0-----01--1-------
0------1--10----1---0-----
1-0--01--01--0--0-----0---
2-0-----0---0-----0-------
--0-0-010--0-0-0----0-0-0-

Generation = 3, Population = 302.
0-0-----0--3--1---10-000--
---0----0----00-00---1210-
--000-0012-21------1-000-0
-0011---00------00----0-0-
-000-0-10-020--01211--00--
1-2-21-10001-0-1-000000---
-0-00--0010-1--100110--0--
--11--0-0--0-----000---001
-000-0-001-1---1-10---0--1
110---0102-------10--00--0
00-0--012-12-2-21--0-1--0-
--0-0001-1-1-0010-01-----0
-0-00-000-1----0--0-2-----
0-00-0--010-0----110-2---1
-00-0-00----10---00-0-1--0
---0-01--1---1--0--0-0--0-
--0-00-301---01-00--0--0--
-0--1-112-011---21--------
0-0-010-00--1-000-10------
10-0-0---0000-12-0200-----
-00-000----1000-2000-00---
--10012--1----00100-00-0--
3--000--1-0--0-000-00---0-
101---1--00-0---0-00-----0

Generation = 4, Population = 164.
-------0100-2-200-21--1---
0-01--0------1--11--12--1-
------1----32-0---0-------
0-----001-----------------
-----1--1--31-0-2-2---11--
--3----2-1-------1--1--0--
---------2----0--------1-0
-0-2-----0-1-----1--------
-----------20-0--21---1---
---0---------0------0--0-1
------1---2--30---01-2-0-0
00-----2---2---------0----
-------1--2-00-1----------
------00----1--00--1----02
-1-----1--00--0--------0-1
-00----1-20----010--------
---0----1--0--2-1-0---0---
--00---23-1-----3--00--0--
1--0-2-2--00---1----------
------0----1102-----1-0---
-------1----1-1-------1---
1--1---0---000-1------0---
4-0-1-00--10--0-----------
--2-0--1-1------101-------

*** Life<FredkinCell> 43x22 ***

Generation = 0, Population = 71.
-0--------0-----------
-----------0----------
-----------------0----
-0-0----------0-------
----------------------
0--00-----------------
----------------------
----------------------
------------------0---
------0-0-------------
----------------------
---------0-----0------
----------------------
--0--0----------0-0-0-
----------------------
----0-----------------
--------0---0---------
--0-----------0-------
------------0--0------
----------0----0-00---
----0-----0-----0----0
------0---------------
-0--0----0---------0--
0---------------------
----------------------
----------------------
---0-----0------0--0--
---0-----0------0-----
----------------------
---------0-----------0
--------------0-------
------0---------------
----0------------0----
--------------------0-
---------------------0
-----0----------------
-------0------0-------
-0-----------0--------
-----0--0-------------
----------------------
0-------0----0--------
----0----------0------
-----0--------0-----0-

Generation = 1, Population = 221.
0-0------0------------
-0----------0----0----
-0-0-------0--0-0-0---
0---0--------0-0-0----
00--0---------0-------
-00110----------------
0--00-----------------
------------------0---
------0-0--------0-0--
-----0---0--------0---
------0-00-----0------
--------0-0---0-0-----
--0--0---0-----00-0-0-
-0-00-0--------0-----0
--0-00----------0-0-0-
---0-0--0---0---------
--0-0--0-0-0-00-------
-0-0----0----0--------
--0-------00-0-1000---
----0----0100-010110-0
---0-00--010------0-0-
-0---0-0-00-----0--0-0
--00-00-0-0-------0-0-
----0----0---------0--
0---------------------
---0-----0------0--0--
--010---010----0100-0-
--010---010----010-0--
---0------------0----0
--------0-0---0-----0-
------0--0---0-0-----0
----00-0------0--0----
---0-00---------0-0-0-
----0------------0-0--
-----0----------------
----0-00------0------0
-0---00-0------0------
0-0--0-00---0---------
-0--0-00-0---0--------
0----0-------0--------
-0--0--0-0--0-00------
0--0----0----0--0---0-
------0------0-----0-0

Generation = 2, Population = 240.
-0-0----0-0-0----0----
-1-0-----0---00-------
-1--------0----0---0--
10--10-----00---0-----
-----------------0----
0--2-10-------0-------
------------------0---
0--00-0-0-------------
----------------0---0-
----0-0-010----0------
------------------0---
--0--0001--0-0--100-0-
----------------------
0--1---0-0----010---0-
--------0---0---------
--0--10-------0-0-0-0-
------0-----0-10------
0---------0-0--0000---
----0---0---010-11---0
--0---0-0---101212-10-
-00-0-1-01----00--1--0
0---0---0-1----0-00---
--110-10--10----00----
0-0---0---------------
-0-00-----------0-----
0--1-----1------1-----
-0---0-0---0--0--11--0
-0---0-0-2-0--0---0--0
---1-----0----0-1--0--
---0--00-0-0----0--0-0
----0-------0---00----
----1---00----------00
--0---1-------00---0-0
-----00-----------0---
----0--0------0--0-0-0
-0-0---1-----0------0-
--------10--0---0----0
---0-1-----0---0------
0--0--1-0-0--10-------
-0--0--------1-0------
0-0---0-0-00--11----0-
--0---0------1---0----
0--0-0-00---010-0-0-0-

Generation = 3, Population = 423.
01-10--0-0----0-0-0---
0--10-----0--11--0-0--
--0000------00----0-0-
2-00210----110-----0--
-0-00-0----00-0---0---
-00--210-----0-0-00---
----00--0-----0--0-0--
-0011----0------0-0-0-
0--0-----00------0-0-0
---0----1-10--0---0-0-
--0-00-0-000-0-00-100-
-0-001--200---002----0
0-00-00-00-0-000-00---
-00-0-0-0-0-001-10-0-0
0-00-00----0-0-0--0---
-0-002-00----010-----0
0-0---10--001---00--0-
-0--0-0-00----0-1110-0
0-00-000100012--22-0--
--10-01----0-1-32-1210
-1--1-2-12--0--1-02---
-----0--102----10--0-0
-0-----1-0-10---1-----
-010-01---00-----0----
0-0-100--0-----010----
-002-0-00-00--002-0--0
-10101-10-010010-2-001
010101-1-3-100-01-1-01
-002000-0-0--01-20-10-
--01-011-1----00--01--
----10000----0-0-1000-
--002000110-0-0000--1-
-0-00-2000---0110---01
--0--1---------0---0--
-0-----10------00-0-0-
0-----02-0------00---0
-0---0--210------0----
0-01-----0---0-------0
--01--------0-10------
0----0-----002-10---0-
-010001---11002-00-0-0
-01---1---00-200------
-0----0110-0121--0---0

*** Life<FredkinCell> 24x23 ***

Generation = 0, Population = 59.
-----0---0-----0------0
----------0------------
-------0---------------
--------0----0---------
-----------------------
-------------0--0------
----0------------------
----0-----0------------
-------0--0---0--------
-0--0-00----------0----
--------0-----0--------
0---0------------------
-----------------0--0-0
-------0-------------0-
-------------------0---
-0------0---------0----
-0--0---0-0------0-----
-------00--------------
--0-000-----------0----
---------0-----0-------
0-----0----0---0-------
0---0------------------
----------------------0
-0----------0----0---0-

Generation = 1, Population = 158.
----0-0-0-----0-0----0-
-----0-0---0---0------0
------0---0--0---------
---------0--0-0--------
--------0-------0------
----0-------0-00-0-----
---010----0--0--0------
---010-0-010--0--------
-0-----10010-0-0--0----
0-00--1---0------0-0---
00----0--0---0-0--0----
-0-0-0--0-----0--0--0-0
0---0--0--------0-00-0-
------0-0--------0-0---
-0-----00-----------00-
010-0--0100------------
0100-0-----0----0------
-00--0-1-00------00----
-0--1-1-00-----0-0-0---
0-0-00--0-00--010-0----
10--00-0-00-0-010------
10-0-00----0---0------0
00--0-------0----0-----
0-0--------0-0--0-0-0--

Generation = 2, Population = 164.
---0-0-0-0-0-0-0-0--0--
------------00---------
---------------0------0
------0----0-0-00------
----0--0---------------
----1---0-00-011--0----
--0---00--1---0--------
-00-2--10---00--0-0----
----00---1----0-0------
1-11002-001-----0---0--
------10----0-0-00--0-0
01--0-------------0--0-
--------0-----00--1-0--
00--00--10--------01---
-1--0---1-0------0--110
---0--0-2-1-----0---00-
---1010-0-0-0--0--0----
-1---10-0-1----0--1----
-1002--0--00---101--0--
1---1---1--1-0---0-----
2----10-01-------00---0
21----1--0--0--1-0---0-
1-----0----0---0----0-0
10-00-----0-0-00-0---0-

Generation = 3, Population = 240.
--0---------01----00-0-
---0-0-0-0--1-0--0--0-0
------0----00-01-----0-
----00----0-----10----0
---010----0---0-0-0----
--002000---1-12200-0---
--10-01-002-001-0------
01--3---1-1011001--0---
00--1--102--0----00-0--
--2-11-011200--0---0100
-000---1-000-----1-010-
1200-0000---0--00-100--
-----0-01----01100-0---
1-00-10021----00---2000
-20-1-00-010---------21
-1010-1----00-----00---
-10--21------001-01000-
02--0--11---0-0---200--
--------00--000----0-0-
2-0-2-0-2--2--01----0-0
-----2----0000-10110---
320----0-10--002-1----0
-0-00010-0--0---0--0---
-1-1100--0-0--1---0----

Generation = 4, Population = 185.
-0---0-0-0-0-2----110--
------0---0--01-0------
---000---0-1---2------0
---------01-0----1-----
-----1-0-01---10------0
-0--3-11-00-0----10-0--
0------0------2--------
----4-0------21--------
---0--0---10--0--11-1-0
1031-2-12-31-00-0----11
----------1-0-----01---
231-------0-------2----
-0--0--12----12-111-000
-0-10-1-3--0-----00--1-
--1-201-1-----00--0----
02---0---0--1-00------0
-2--03--0--00112-1--110
1--0---2---01--------0-
-10---1-110---1----1---
-----0--3--300---000-0-
-0-----00--1---2-2-1---
431-0--1----0----2---0-
--0-112-------------0-0
12--21--01---0-000-----

Generation = 5, Population = 284.
0-0-0-0---0--3--002-10-
-0-000---0-01-20-0000-0
--01-1--01---0---0---0-
---00--001-0-00-1-0----
-0----01-120-0210-0-00-
--00-022-----1-2021--00
------11002-0-30-00-0--
0-----1---101320-00-0-0
00-1--1-02--00-0-22--01
2-----223-4-01-----0-2-
---0-0-100-0--0-01-2100
34200--00010000-0---000
----10-2-000023-222-111
11021120-10-00-0--12-2-
02-0-1--2--000--0-10-21
1---0---2-1-2011000-0-1
030-1-1---0---2---1022-
-2---1--10-----0-0-0-1-
-21----0--10---1-1-20--
--0-2--------1-10--1--0
-1--020--102000---120--
54--1--2-----0-20300---
-01-223-00--00-00--0-0-
23-1---0120-0--1-10-0-0

*** Life<FredkinCell> 54x52 ***

Generation = 0, Population = 79.
--------------------------------0-----------0-------
------------------------------0---------------------
----------------------------------------------------
---------0---------------------------------------0--
----------------------------------------------------
-------------------------------------------0------0-
-----------------------------0-------00-------------
-------------------------------------------0--------
----------0-0---------------------------------------
-------------0----0---------------0-----------------
-----0-0--------------------------------------------
----------------------------------------------------
----------------------------------------------------
0-----------------------0---------------------------
------------------0------0--------------------------
---------------------------------0--0---------------
-------------------------------0--------------------
-----------------------0-------------------------0--
-0---------------------------------------------0--0-
---0------------------------------------------------
------------------------------------0---------------
------------00-----------------------------------0--
----------------------------------------------------
--------------------------0-------------------------
--------0-----------00-----------0------------------
----------------------------------------------------
-------------------------0--------------0-----------
----------------------------------------------------
----------------------------------------------------
----------------------------0-------------------0---
----------0---------------------0-------------------
------------------------------------0---------------
---------------------------------------------0--0---
------0---------------0-----------------------------
-----------------------------------------------0----
-------------0--------------------------------------
----------------------------------0-----------------
----------------------------------------------------
---------0-------0-------------------------------0--
-----------0----------------------------------------
-0------------------------------0-------0------0----
----------------------------------------------------
--------------0-----------0-------------------------
----------------------------------------------------
----------------------------0-----------------------
----------0-----------------------------------0-----
----------------------------------------------------
0-0-0--------------------------------0--------------
--------------0-------------0-----------------------
----------------------------------------------------
--------------------------------------0-------------
------------------------------0----0----0-----0-----
--0-------------------------------------------------
----------------------------------------------------

Generation = 1, Population = 290.
------------------------------00-0---------0-0------
-----------------------------0-00-----------0-------
---------0--------------------0------------------0--
--------0-0-------------------------------------0-0-
---------0---------------------------------0-----00-
-----------------------------0-------00---0-0----0-0
----------------------------0-0-----0110----------0-
----------0-0----------------0-------00---0-0-------
---------0--------0---------------0--------0--------
-----0-0--0---0--0-0-------------0-0----------------
----0---0----0----0---------------0-----------------
-----0-0--------------------------------------------
0-----------------------0---------------------------
-0----------------0----0----------------------------
0----------------0-0------0------0--0---------------
------------------0------0-----00-00-0--------------
-----------------------0------0-00--0------------0--
-0--------------------0-0------0---------------00---
0-00-------------------0----------------------0-0--0
-00-0-------------------------------0----------0--0-
---0--------00---------------------0-0-----------0--
-----------0110---------------------0-----------0-0-
------------00------------0----------------------0--
--------0-----------00---0-0-----0------------------
-------0-0---------0110---0-----0-0-----------------
--------0-----------00---0-------0------0-----------
------------------------0-0------------0-0----------
-------------------------0--------------0-----------
----------------------------0-------------------0---
----------0----------------0-0--0--------------0-0--
---------0-0----------------0--0-0--0-----------0---
----------0---------------------0--0-0-------0--0---
------0---------------0-------------0-------0-00-0--
-----0-0-------------0-0---------------------0-00---
------0------0--------0-----------------------0-0---
------------0-0-------------------0------------0----
-------------0-------------------0-0----------------
---------0-------0----------------0--------------0--
--------0-00----0-0-----------------------------0-0-
-0-------00-0----0--------------0-------0------0-0--
0-0--------0-------------------0-0-----0-0----0-0---
-0------------0-----------0-----0-------0------0----
-------------0-0---------0-0------------------------
--------------0-----------0-0-----------------------
----------0----------------0-0----------------0-----
---------0-0----------------0----------------0-0----
0-0-0-----0--------------------------0--------0-----
-----0--------0-------------0-------0-0-------------
0-0-0--------0-0-----------0-0-------0--------------
--------------0-------------0---------0-------------
------------------------------0----0-0-00-----0-----
--0--------------------------0-0--0-0-00-0---0-0----
-0-0--------------------------0----0----0-----0-----
--0-------------------------------------------------

Generation = 2, Population = 290.
------------------------------1-0-0-------0-0-0-----
---------0------------------0---1----------------0--
--------------------------------0-----------0-------
-------0---0------------------0------------0---0--10
-----------------------------0-------00-------------
---------0-------------------------------0-0-0--01--
----------0-0--------------0---0---01--10-----------
-------------0----0---------------0------0-0-0----0-
-----0-00-0-0-0--------------0-------00-------------
-----------0---00---0-----------0---0------0--------
---0-0-0-00-0---------------------------------------
0------------0----0-----0---------0-----------------
-----0-0----------0------0--------------------------
0-0-------------------0---0------0--0---------------
----------------0---0--0---0---0--------------------
0----------------------00------1--11--0----------0--
-0----------------0------0---0---1-------------0--0-
---0-----------------0---0-------0--0----------1---0
---1---------------------------0----0--------0--10--
-1---0------00---------0----------------------------
-0--------------------------------0---0--------0--0-
---0------01--10----------0--------------------0---0
--------0-----------00-----------0--0---------------
------------00----------0---0--------------------0--
------0---0-------01--10-0-----0---0----0-----------
--------------------------0-------------------------
--------0-----------00-0---0-----0----0---0---------
----------------------------0-------------------0---
----------0--------------0------0-------0-----------
--------------------------0---0-----0---------0---0-
--------0---0-----------------0---0----------0--1---
------0---------------0-----0-----0---0---------1---
----------0---------------------0----------0--1---0-
----0---0----0------0---0-----------0---------------
----------------------------------0-------------10--
------0----0---0------0-----------------------------
---------0-------0--------------0---0----------0-0--
-----------0-0--------------------------------------
-0-----0---1---0---0------------0-0-----0----------0
---------1---0--------------------------------------
---0-----0----0--0--------0---0---0---0---0--0------
-----------0----------------------------------------
-0----------0---0-------0-------0-------0------0----
----------0-----------------------------------0-----
--------------0---------------0---------------------
0-0-0---0---0------------------------0------0---0---
--------------0-------------------------------------
----0-0---0------------------------0---0------0-----
------------0---0---------0---0-------0-------------
0-0-0-------------------------0----0-0--0-----0-----
--0-----------0-------------0-------0---1-----------
----------------------------0---00---01---0-0---0---
0---0---------------------------------0-------------
------------------------------0----0----0-----0-----

Generation = 3, Population = 884.
---------0------------------00--1--0-----0-----0-0--
--------0-0----------------0-000-00-------0---0-0-0-
-------0-0-0----------------0-0010-----------0-0-000
------0-0-0-0------------------00----00---0---0-0021
-------0-0-0----------------0-------0110-0---0-00000
--------0---0--------------0-0-0---00000------00120-
------------------0-------0-0-0-0--1211210------000-
-----0-00---0----0-0-------0-0-0-0--0000------0--0-0
----0--11--0-0--0-0-0-------0-0-0-0--110-0---0----0-
---0----000-0--110-0-0-------0-0-0-0--0---0-0-------
0-0------110---00-0-0---0-------0-0-0------0--------
-0-0-----00---0--010---0---------0-0----------------
--0-0---0----0---010--0----------00-0---------------
---0-0-0--------0-0-00---------00-00-0--------------
--0------------0-0-0-0-1----0-0100000-0----------0--
----------------0-0-0-0-1--0-0020-2200-0-------00---
--00-------------0-0-0-0-10-0-0002-00-0-------010---
-0010-------------0-0-0-010--0-0010010-------002-0--
-00200------00-------0-0-0----0-00-010------0-0-2100
02000-0----0110-------0-0------0--0-0-0------0-0000-
0100-0----000000-------0--0------0-0-0-0------0100--
-00-0---001211210---00---0-0-----00-0-0-------010---
---0---0-0000000---0110-0-0-0---0-00-0---------0-0-0
------0-0-00110---00000----0-0-0-0-00---0-------0-0-
-----0-0-0-000---01211210---0-0-0-0-0--0-0-------0--
------0-0-0-------00000--------0-0-0--0-0-0---------
-------0-0---------011--0-------0-0--0-0-0-0----0---
--------0-0---------00-0-0---0--00----0-0-0----0-0--
---------0-0------------0---0-00-0--0--0-0----0-0-0-
--------0-0-0--------------0-0100-00-0--0------000-0
------00-0-0-0--------0---0-0010-0100-0-----0--0200-
-----0-00-0-0--------0-0---0-00-0010-0-0---0-000200-
----0-0-00-0-0------0-0-0---0--0-00-0-0---0-00-000-0
---0-0-0-00-0-0----0-0-0-0------0-00-0-----0--0-000-
----0-0-0--0-0-0----0-0-0--------0-00----------0210-
-----0-0-00-0-0-00---0-0--------0-0-0----------00---
------0-0-0--0-00-0---0--------0-0-0-0--------0---0-
-0-----0-001--00-0-0--------------0-0---0------0-0-0
0-0---0-00020-0-0-0-0----------0---0---0-0--------0-
-0-0---002000--0-0-0------0---0-0-----0-0-0--0-----0
--0-0---0100---00-0------0-0-0-0-0-0-0-0-0-00-0-----
-0-0-----00---0-00------0-0---0-0-0---0-0-0--0-0----
0-0-------0--0-0-0-----0-0-----0-0-----0-0------0---
-0-------0-00-0-0-------0-----0-0-------0----0------
0-0-0---0-0-00-0-------------0-0-----0------0-0-0---
-----0-0-0-0-0----------------0-----0-0----0-0-0-0--
0-0---0-0-0-00-0-------------------0-0-0----0-0-0---
---0---0-0-00-0-0---------0---0---0-0---0----0-0----
0-0---0---00-0-0-0-------0-0-010--------0-----------
--1--0------0-0-0---------0-0010--0-0--010---0-0----
00100--------0-0-----------0100-00---000200-0-0-0---
0-0-0---------0------------010-0110--1-000---0-0-0--
-0-0-0----------------------0-0-00-0--100-0-0-0-0---
0---0------------------------0-0--0-0-00-0---0-0----

Generation = 4, Population = 298.
----------------------------1-------0---0-------0---
--------------------------0---1---1--------0------1-
-----------------------------0--2----00-----0-------
-----0-------0-----------------------------0-0-----2
----------0-0-------------------0-----------0-------
-------------0----0-----------0---0----1------11--1-
-----0-0-----------------0--------0------10---------
---------0-----------------------------1-------0-1--
------0-2-----0-1-----------------------------------
0--------1----0--1----0-0-----0-------1----0------0-
-0-0-----2-1------1------0---0-------00-------------
---------------------------------1--0------0--------
----------0-0------------------0--------------------
--0-0--------0----1-1--0----0-----1--------------0--
-0---0-0------0------10------0-----------------0--0-
---0-------------------------1--1----1--0-----------
---------------------------0-------11---------------
0-----------00-----0----1--0-----------------1---1-0
-1---1------------0------1-----------------0--1---11
-------0------------------0------0--1---------------
--------0-----------00---------001------0-----------
--------11------10-----0---------------------0---0-0
-0-----------------------0--------------0------1--0-
---0------------------1-------0---------------------
----0-------1---01------10---0------10--------------
------------00--------------0-------------------00--
----------0----------2-------0--1---0-------0-------
--------------------------0---------0---------------
--------0-----------00-----------1-----------0--1---
------0---------------0-0-------1-----------0-------
------1-------0----------0--1-------1---0------1----
-------------0------------------1-------0-----------
----------------------------------1------0--1----1--
--0-------1-------0-------0-0-------------------1---
---------00------0--------------0----------0-----2-0
---------1-0-----1------------------1---------------
-0----------------------------0-0-----0-0----0-00---
------0---------------0-----------------------------
-----0--------1------0----0------------------0-0---0
-------1-----0-1------------------------------------
-0---0----------------------------0--------11------0
----------1-----------------------------------0-----
---------01------10---0-------0------------------0--
0-0-0------1-------------------------0--------------
-0------------0---------0---0-----------0------0----
------0-------0---------------------------0-------0-
--------------0-----------0-----------0-------------
--0-0-0-0---------------------1--0-0----10----0-----
--1-------1-------0-----0---0---0-------------------
----------0-----------------------------------0-----
----------------------------------0-------1---------
1-1-1---------------------0----1--1-02-1--0-0-----0-
0-0---0-------0-------------1-----------------------
------------------------------0----0----0-----0-----

*** Life<FredkinCell> 24x22 ***

Generation = 0, Population = 50.
--------------0--0----
-0-0---0-0--0---------
0-----------------0---
-----------0---0------
------0-0--------0----
---------------0---0--
------0------------0--
-----------0----0-----
---------0------------
---------0-------0----
--------0-------------
---0-0-0--------------
------------0---------
--------------------0-
--------0-------0-----
-----0---0------0---00
----0-----------------
0-----------0---------
------0-0-------------
--0--------0---0------
---------------0--0---
---0------------------
----------------------
---------00------0----

Generation = 1, Population = 154.
-0-0---0-0--00-00-0---
----0-0---00-00--00---
---0---0-0-00--0-0-0--
0-----0-0-0-0-0-000---
-----0---0-0----0-00--
--------0-----0-00010-
-----0-0---0---00-010-
------0--00-0--0-0-0--
--------0100----00----
---------10-----0-0---
---0-0-----------0----
--0---------0---------
---0-0-0---0-0------0-
--------0---0---0--0-0
-----0-0-------010---0
------0---0----010-011
0--0-----0--0---0---00
-0--0-0-0--0-0--------
0-0--0---0-00--0------
-0-0--0-0-0-0-010-0---
--00-------0--0100-0--
--0-0----------0--0---
---0-----00------0----
--------0110----0-0---

Generation = 2, Population = 140.
0-----------1-011010--
-0-0---0-01---10------
0-0---0-0-----0-0---0-
-0-0---0----1--0-1-0--
0---0---0-0----0--1---
-------------0-01----0
----0-0--0-----------0
-------------001-101--
------001--1-------0--
---0-0---------01--0--
------0--00-0---------
-0-0---0---------0--0-
----------0---0-0-----
---0---0-0------1-0-01
----0-0---0-0-0---0---
0--0-------00-0----122
--0-------------1-----
0----0---001--000---00
------0-0-0----1--0---
---10----0--1----0----
------0-0----0--11--0-
-01--0---000---1-0----
---------------0--0---
---0---012210--0-0-0--

Generation = 3, Population = 242.
---0---0-000---2---10-
0-0-0---0120002-00000-
---0-0----0-001------0
0-0-----0-00-0-10-0---
-----0-----0000------0
0-----0-000-0---200-01
---0---00-0---0-000101
----0--000-001-2-2--00
---0--1-210-000-00--0-
--0---0001000-0120010-
-0------011--0-000-00-
0---0---00--0-0---00-0
-0---------0-0--1-0--0
--0-------0-0--02-1-12
0--0-------01-10101---
-0----0----1--101--2-3
-0---0---00-0---20-0--
-00-0----1120011-00011
0--00-----1-0--2---000
--0210--0--0---1-1--0-
-0000----000--0-2200-0
01200----1-1000201--0-
-000-0-00---0-0-00----
--0-0-01----1001--0-0-

*** Life<FredkinCell> 14x27 ***

Generation = 0, Population = 44.
---------------------0-----
-0-----0-0----0--0---------
-0-00---------0---0--------
-----------0----0--0--0----
----------------0----------
--0----------00-----00-0---
------------------0----0---
--------0------------------
----0---------00-------000-
-------0-------------------
---0--------0-0-----0------
--0--0---0------0----------
---------------0-0-0-------
-----------------------0---

Generation = 1, Population = 140.
-0-----0-0----0--0--0-0----
01000-0---0--0100----0-----
01-110-0-0-0-0100-----0----
-0-00-----0-0-0010--00-0---
--0--------0-00010-00000---
-0-0--------01100-0011-10--
--0-----0----00--0-000010--
----0--0-0----00--0-----00-
---0-0-00----0110-----01-10
---00-0-0---0--0----0--000-
----00-0-0-0---00--0-0-----
-0--0-0-0-0-0-0----00------
--0--0---0----0-0---0--0---
---------------0-0-0--0-0--

Generation = 2, Population = 113.
-1-00---------1---00-0-0---
---1-0-0-0--0--1------0----
-202-10-----0---1---00-----
-10----0------1---0----10--
-0-00-------------0----1---
0---0---0---1--1--1--2-2-0-
----0---------10----11-21--
--0---01--0--01-----00-0---
--01--0------12-100-001--21
--0-----1-------0----------
-0--11----0-0---1001--0000-
0--01--0---0--1---0----0---
---0--------0010---010-----
--0--0---0------0----0-0-0-

Generation = 3, Population = 204.
0---1--0-0--00---011--0-0--
----010---0010----0000-----
0-1---10-0-0101--00011-00--
02-000--0---00-01010000-10-
-101-0-00---0-00-0-0-00--0-
-----0-0-0-0-1-20020-3--0-0
0-0010000-0-0---0-00-2-32--
-01-00-200-00-2-00001101-00
-012001-0-0-0-----1--12-032
--1-0000-00-0000-0-000-00-0
-----20000-0-000--120011-10
--0---0-0---0-2-0-1000-1-0-
0--1-0-0-0--1-21---1--0--0-
-0--0-0-0-0-000--0-0-1----0

Generation = 4, Population = 122.
-1-02---------1-012------0-
--01---0-011-1---01-1--0---
12---1-10-0---2------201---
-------01---1-----2-1--1--0
----0-------1-11----01-101-
00----0---0---1-1131----10-
-0--2-------1-1---111-0----
--2-11---1-11------1--1----
0-------1-10---1102002---43
--20-------0-11-----11-----
-------11-0------------20--
00---01-10--10------1--2---
----0------0-032-0---0--01-
--0--0-0-0------0--1-------

*** Life<FredkinCell> 37x34 ***

Generation = 0, Population = 32.
----------------------------------
-----------------0----------------
------00--------------------------
---------------------------00-----
----------------------------------
0---------------------------------
----------------------------------
---------------------------------0
-------------------0--------------
-------0----0----0----------------
----------------------------------
-----0------------------------0---
----------------------------------
----------------------------------
----------------------------------
----------------------------0-----
-------------------------0--------
----------------------------------
--------------------0-------------
----------------------------------
-----------------------0----------
------------------0---------------
----------------------0-------0---
----------------------------------
----------------------------------
--------------0---0---------------
-----0----------------------------
----------------------------------
----------------------------------
----------------------------------
---------0------------------------
-------------0------------0-------
----------------0----0----0-------
----------0-----------------------
-------------------------------0--
----------------------------------
---------0------------------------

Generation = 1, Population = 125.
-----------------0----------------
------00--------0-0---------------
-----0110--------0---------00-----
------00------------------0110----
0--------------------------00-----
-0--------------------------------
0--------------------------------0
-------------------0------------0-
-------0----0----00-0------------0
------0-0--0-0--0-00--------------
-----0-0----0----0------------0---
----0-0----------------------0-0--
-----0------------------------0---
----------------------------------
----------------------------0-----
-------------------------0-0-0----
------------------------0-0-0-----
--------------------0----0--------
-------------------0-0------------
--------------------0--0----------
------------------0---0-0---------
-----------------0-0--00------0---
------------------0--0-0-----0-0--
----------------------0-------0---
--------------0---0---------------
-----0-------0-0-0-0--------------
----0-0-------0---0---------------
-----0----------------------------
----------------------------------
---------0------------------------
--------0-0--0------------0-------
---------0--0-0-0----0---010------
----------0--0-0-0--0-0--010------
---------0-0----0----0----0----0--
----------0-------------------0-0-
---------0---------------------0--
--------0-0-----------------------

Generation = 2, Population = 119.
------00--------------------------
---------------0---0-------00-----
----01--10------------------------
0----------------0-------01--10---
------00--------------------------
0-0------------------------00----0
-------------------0--------------
0------0----0----0-------------0-0
-----------------1---0------------
---------00---00---1----------0--0
-------------------0--------------
---0--------0----0----------0---0-
----------------------------------
-----0----------------------0-0---
-------------------------0--------
--------------------------0---0---
--------------------0--0---0------
----------------------------0-----
------------------0---00-0--------
------------------0---------------
--------------------001--0----0---
----------------0---0-------------
--------------------0--10---0---0-
--------------0-------------------
-----0----------------0-------0---
------------0-------0-------------
---0---0--------------------------
--------------0---0---------------
-----0---0------------------------
-------------0------------0-------
-------0---0----0----0----1-------
----------00---0--------0---0-----
---------0----0---00---00---0--0--
--------0---00------------1-------
---------0------0----0----0--0---0
----------0-----------------------
-------0-0-0-------------------0--

Generation = 3, Population = 377.
-----0110------0---0-------00-----
----000000----0-0-0-0-----0110----
0--01211210----0-0-0-----000000---
-0--000000------0-0-----01211210--
--0--0110--------0-------000000--0
---0--00-----------0------0110--0-
--0----0----0----00-0------00--0--
-0----0-0--0-0--0100-0--------0---
0------0-00-0-0002000-0-------00--
--------0110-011000200-------0-00-
---0-----00-0-00-0010-------0-0-00
--0-0------0-0--0-00-------0-0-0-0
---0-0------0----0------------0-0-
----0-0------------------0-0---0--
-----0------------------0---0-----
--------------------0--0-----0-0--
-------------------0-00-0-----0---
------------------0-0-0--0---0----
-----------------010-011--0-0-----
-----------------01000-0------0---
----------------0-00--200-0--0-0--
---------------0-0-0--0000--0-0-0-
--------------0-0--0100210-0-0-0-0
-----0-------0-0----0-000---0-0-0-
----0-0-----0-0-----00-0-----0-0--
---0-0-0---0-0-----0-00-------0---
--0-0-0-0---0-0---0-0-------------
---0-0-0-0---0-0-0-0--------------
----0-0-0-0--00---0-------0-------
-----0-0-0-00-0-0----0---010------
------0-0--100---0--0-0-00200-----
-------0--1-0-----00-0--101010-0--
-----------00----0110-01-010100-0-
-------0-0-011--0-00-0-0002000-0-0
------------00-0-0--0-0--0100-0-0-
-------0-0------0----0----0--0-0-0
------0---0-0-----------------0-0-

Generation = 4, Population = 109.
------22--------------------------
0------------0---0---0------------
--01------10----------------------
-----------------------01------100
-------------------0--------------
--0-0--1----0---------------------
------01--------------------------
-----0---------------------00010--
---------------1-------0----------
0--0----1--1-1--1----1------------
----------------------------------
-0-------0----------------0-0----1
-------------------0-----0--------
-------0----0----0----------------
--------------------0-------------
-----0------------------0-----0-0-
---------------------1-0-----0----
------------------1---------------
----------------0-----2-0-----0---
----------------------------0-----
-------------------1-----0-0------
------------------0---1-----------
-----0------------0-2-------------
----------------------------------
-----------------------1----------
----------0---0-------1-----------
-0--------------------0-------0---
-------------1------------0-------
----------------0----0----1-------
----------0---1---0---------------
-------------1-----------------0--
---------0-------0----0-------0---
---------0--1----1--1-1--1----1---
------0-------0-------------------
---------------------------1-----0
-------------0------------1-------
-----0-------0--0----0----0----0--

*** Life<FredkinCell> 56x40 ***

Generation = 0, Population = 68.
-----------------------------0----------
--------------0----0---------------0----
-------------------------------0--------
-------------------------------0--------
-------------------0--------------0-----
----------------------------------------
--------------0---------0----------0----
----------------------------------------
----------------------------------------
---------0------------------------------
--------00--0----0----------------------
---------------------------------0------
----0---------------------------------0-
----------------------------------------
----------------------------------------
------------------------------------0---
----------------------------------------
---0----0----------------------------0--
--------------------------0-------------
--------------0------0---------------0--
-----------0----------------------------
-------0----------0-------0-------------
----------------------------------------
----------------------------------------
----------------------------------------
----------------------------------------
----------------------------------------
----------------------------------------
--------------------------------0-------
0---------------------------------------
---------0------------------------------
---------------0-------------0----------
------------0---------------0-----------
------0---------------------------------
------0------------------------0--------
-0--------------------------------------
----------------------------------------
------0---------------0-----------------
-----------------------------0---0------
----------------0-----0-----------------
0----------------------------0----------
------0--------------------------0-0----
-----------------------------0----------
----------------------------------------
----------------------------------------
----------------------------------------
-------0--------------0-----------------
--------------------------------------0-
----------------------------------------
----------------------------------------
------0------0--------------------------
--0-------------------------------------
-------------------------0--------------
---------------------------------0------
---------------------------0-0--0-------
---------------0------------0--------0--

Generation = 1, Population = 238.
--------------0----0--------0-0----0----
-------------0-0--0-0--------0-0--0-0---
--------------0----0----------010--0----
-------------------0----------010-0-----
------------------0-0----------0-0-0----
--------------0----0----0---------00----
-------------0-0-------0-0--------0-0---
--------------0---------0----------0----
---------0------------------------------
---------10-0----0----------------------
-------01-00-0--0-0--------------0------
----0---00--0----0--------------0-0---0-
---0-0---------------------------0---0-0
----0---------------------------------0-
------------------------------------0---
-----------------------------------0-0--
---0----0---------------------------00--
--0-0--0-0----------------0---------0-0-
---0----0-----0------0---0-0------------
-----------0-0-0----0-0---0---------0-0-
-------0--0-0-0---0--0----0----------0--
------0-0--0-----0-0-----0-0------------
-------0----------0-------0-------------
----------------------------------------
----------------------------------------
----------------------------------------
----------------------------------------
--------------------------------0-------
0------------------------------0-0------
-0-------0----------------------0-------
0-------0-0----0-------------0----------
---------0--0-0-0-------------0---------
------0----0-0-0-----------0------------
-----010----0---------------0--0--------
-0---010----------------------0-0-------
0-0---0------------------------0--------
-0----0---------------0-----------------
-----0-0-------------0-0-----0---0------
------0---------0-----------0-0-0-0-----
0--------------0-0---0-0---------0------
-0----0---------0-----0-----0-0--0-0----
0----0-0------------------------0---0---
------0---------------------0-0--0-0----
-----------------------------0----------
----------------------------------------
-------0--------------0-----------------
------0-0------------0-0--------------0-
-------0--------------0--------------0-0
--------------------------------------0-
------0------0--------------------------
--0--0-0----0-0-------------------------
-0-0--0------0-----------0--------------
--0---------------------0-0------0------
-------------------------0-0-0----0-----
---------------0----------0-0-00-----0--
--------------0-0---------------0---0-0-

Generation = 2, Population = 245.
---------------------------0-0----------
------------0---00---0---------1-0---0--
-------------------1-------------00-----
--------------0----1---------0---0-0----
--------------0--0---0--0------10--10---
-------------------------------0--------
------------0---0--0--0---0------01--0--
---------0------------------------------
--------01--0-0--0------0----------0----
-------0---0---------------------0------
----0-01---1--00---0------------------0-
---------1---------------------0---0----
--0---0-00--0----0------------------0---
---------------------------------0--0---
----0---------------------------------0-
---0----0-------------------------0--10-
--------------------------0-------------
-0---00---0---0------0-------------010-0
-----------0------------0---0-----------
---0---00---0---0-00---0--1--------0-0-0
---------0---0------------1-------------
-----0---0----0-0---00--0---0--------0--
-----------0----------------------------
-------0----------0-------0-------------
----------------------------------------
----------------------------------------
--------------------------------0-------
0---------------------------------------
---------0--------------------0---0-----
0-0------------0-------------0----------
-------0---00---------------0---0-------
0-----0------0---0---------0---0--------
------1--00---0-----------0---00--------
-0--0---0------0-------------0----------
----0---0---0---------------00---0------
---0------------------0-----------------
------1----------------------0-0-0------
-0--0---0-------0---0-0-0---------------
0--------------------------0-0-----0----
--------------0---0-0-0-0--------1-0----
0-0------------------------0---0-1------
----0---0-------0-----0--------0-0-0-0--
0--------------------------0-0-0--------
------0--------------------------0-0----
-------0--------------0------0----------
--------------------------------------0-
-----0---0----------0---0---------------
------------------------------------0---
------00-----0--------0-----------------
--0-----------------------------------0-
----0---0--0---0---------0--------------
0---0----------------------------0------
------0------0---------0-----0--0-------
--0------------0------------0--0---0-0--
---------------------------0-011--0-----
-------------0-0-0--------0-0-0--0-0-0-0

Generation = 3, Population = 648.
------------0---00---0----0---00-0---0--
-----------0-0-011000-0----0-00--1--0-0-
------------0-0-000200-------0-1011--0--
-------------010-00200--0---0-01-101----
-------------0100-000-00-0---00-1-0-10--
------------0-0-00-0-00-0-0---01-00000--
---------0-0-0-0-00-00-0-0-0---001200-0-
---------10---0-00-0--0-0-0------000-0--
--------1-0----00-0----0-0-------00-0---
----0--1-101---0-0-0----0-------0-00--0-
---0--1-100200110-0-0----------0-0-0-0-0
--0-0--0-2000-00-0-0----------0-0-0---0-
-0-0-0--1-00-0--0-0------------0-0--10--
--0-0-0-00--0----0--------------0-00100-
-----0--0------------------------00-0-10
--0----0-0----------------0------0-002-0
-0-0-00-0-0---0------0---0-0------000-00
0-0-0110-0---0-0----0-0-0-0-0-----01-1--
-0-0-0000-----0-0-00-0---000-0------0---
--0-0-011------0--110-0--0200-----0-----
---0-0-0-10-------0000-000200------0---0
----0-0-0100-----0-01100-000-0------0-0-
-----0-0-00-0-0-0-0-00--0-0-0--------0--
------0-0--0-----0-0-----0-0------------
-------0----------0-------0-------------
--------------------------------0-------
0------------------------------0-0------
-0-------0--------------------0-0-0-----
--0-----0-0----0---------------0-0-0----
---0---0-0-00-0-0---------------0-0-----
--0-----0-011--0-0---------------0------
-0---01--000----0-0------------1--------
00--0020-110-----0-------0----1-0-------
0-0010101-0-0---0---------0--1-0-0------
-0--10-010-0-0-0------0----01-0-0-0-----
--0---0-0---0--------0-0----0--0--------
-0-000-00-------0---0---0---0-----0-----
--00-000-0-----0-0-0-----0-0---0-0-0----
----0---0-----0-0-0-------0---0--0010---
--0----------0-0-0-------0---0-002-10---
---00---0-----0-0-0-0---0-0-0-01--0--0--
--00-0-0-0-----0-0---0-0-----00--1----0-
-0--0-0-0-------0-----0---0----10----0--
0----0----------------0----0---00---0---
--------0------------0-0----0-0--0-0--0-
-----0-0-0----------0-0-0----0-------0-0
----0-0-0-0--------0-0-0-0----------0-0-
-----000-0---0------0-0-0----------0-0--
--0--0110---0-0------0-0------------0-0-
-0-00-000--0-0-0------0--0-----------0-0
0-0010-0-00-0-0-0-------0-0------0----0-
-0-0100-0--0-0-0-------0-0---0----0-----
0-0-00-0----0-00------0-0-----0----0-0--
-0-0--0------00-0------0-----0-1------0-
--0----------0---0-----------12-0--0---0
------------0-----0------0-0-01-0-0-----

Generation = 4, Population = 242.
-------------------0-----0-----1-10-----
----------0---01--11---0-------1---0---0
--------------1---------0--0-1----------
---------------------------0-------2----
---------------1-------1-----11-------0-
---------0----1----1---------------1----
--------010-0----11-1-------0----------0
-------------------------------0-1------
----0--------------0--------------1---0-
-----0-------0--------------------------
----00--2---1-2-1----0--0----------1----
-----------------------------0------00--
0-------2-------------------------0---0-
---0----11---------------------------1--
--------10--0----0--------0-------------
--------------0------0----------01---3--
----0------0--------------------------1-
----1-------0-----0-------1------0-----0
----------------------0-------0---------
----------0------02------1-------0--0--0
-------1-------0------------------------
--------1--1--0---------------0------0--
--------------------------1-------------
--------------0------0---------------0--
-----------0--------------------0-------
0------0----------0-------0-------------
---------0------------------------------
---------------0-------------0----------
------------0-----------------------0---
--0-0-0---------------------------------
-----00------0-----------------0--------
-1---------1-------0-----0-------0------
--------0-------0-------0---------------
1-1---2---1-----------0-----------------
--0------10----------------1-0---0-0----
-0---0---------00-----0------0----------
0-----------0---------------10----------
--1-------0-------0-------0------1-1----
------0------------------0-----0-1---0--
-0----------0-----0-0-----0-------------
--0-1--------------------0-------1------
--1---0---0-----------0------1-0-----0-0
-------0--------------1--0---0----------
----------------0-----1---------------0-
0----------------------------0----------
------0--------------------------0-0----
---0--1----0-0----0-------0--0----------
--0-------------------------------0---0-
-------------------------0--------------
---------------------------------0------
--1----1-11------0----0----0-0--0-------
0-----1--------1------------0--------00-
---------------------0-------0----------
---------------0------------01----------
------0------1---------0-0-002-110--0---
--0--------0-------0----0-------1------0

*** Life<FredkinCell> 21x36 ***

Generation = 0, Population = 70.
------------------------00---------0
--------0---------0------0----------
---0---0-00-0-----------0-----0--0--
----0-----------------------------0-
0--------------0--------------0-----
----------0-0-----------------------
------------0---------0-------0-----
-0-------------0--------------------
----0-------0-----------------------
----0---0---00----00-0------------0-
------0-------0-----------0---------
---0----0-00----0-----------------0-
---------------0---0---0------------
--0----------0---------------------0
-------------------0------------0---
--------0-------------------0-000---
-----0-0------0--------0-0----------
-------0--0-------------------------
-----------------------------0------
---------------0--------------------
--------------0----------0-----0----

Generation = 1, Population = 199.
--------0---------0----01-0-------0-
---0------0-0----0-0----010---0--0-0
--0---0-011--0----0----0-----0-00---
0----0-0-00-0--0--------0----------0
-0--0-----0-0-0-0------------0-0--0-
0--------0--10-0------0-------------
-0--------0010-0-----0-0-----0-0----
0-0-0---------0-0-----0-------0-----
-0-010--0--01--0--00-0------------0-
---01000-0-0-1---011--0---0------0-0
---000-0--000--00-00-0---0-0--------
--0-0-00--110-0--0-0---0--0------0-0
--00----0-00-00---0-0-0-0---------00
-0-0--------0-00-------0--------0-0-
--0-----0----0----0-0-------0-0-10-0
-----0---0----0----0---0-0-0--1--0--
----0--1--0--0-0------0---0-0-000---
-----00100-0--0--------0-0---0------
-------0--0----0------------0-0-----
----------------0--------0---0-0----
-------------0----------0-0---0-0---

Generation = 2, Population = 204.
---0---0-00-0---------01-010--0-----
----0-0---1-----0---0--0---0------0-
00-----012200-00------0-000-0-011---
--0---0-0-1-1-----0------0------0---
0-00---0-01--0---0----0-0---0---00--
-0--0---0-0-2-01------------------0-
0---0-----1-2-01----0---0---0-0-0---
---01---0-0------000-0------------0-
--0-------0-2---------0---0---0-----
-001----0-0---0--1-200-0--------0-0-
--------0------11--1---00---0-------
-01-101--02--01----1-0----------0-01
------0------11----0-----00-----0---
0--10-----0----10-----------0-001010
-----0-0------00-0-0-0---0----1---0-
--0---00-----0------------0-00--0100
---0-0-2-0--0---0--0-0-0-0-0-0--1---
-----1---1--0--0------------0-000---
-----0-1---------------0---0--------
-------0--0--0---0------------------
------------0-0-0------0-0-0---0-0--

Generation = 3, Population = 312.
--0------1---0--0---001--1--00-0--0-
00-----000----0--0-0-001--01---000-0
11--0-012-----11--0-00-01110--1--00-
--1--0--1--02-00---0----01----0-----
-0-1-----1200--00----0-----0-0-0-1--
0---10---0--30--00--0-0-------0----0
-----0---0--3---000----0-0-0-----0--
0--1-0-0---0--0001-10---0-0-0---00-0
--101----0---00---0-00---0-0-0-00---
01121--01-1001-------101--0-0-00---0
---000001----0022-0---0-10-0-0-----0
012-2--0-1310---0-0---00000-0--01-12
0000--10-0--0---0-0100--01100-0-----
-0021-00-0-0-00-1----0----00----2-21
0-00--010-0---1-0-----0-0-----2--0-0
-0---01100-----000-----0-0-01--0--11
-----103-1001----00-------0--1----00
---00-0-0200100----0-0---0-0-01--0--
----01-2000-00-0-0----0-0-0---000---
-----00100-0------0------0-----0-0--
-------0--00-0--------0-----0-0---0-

Generation = 4, Population = 214.
0--0---0-20-0--0----11--1---11-1----
----0---1-1---1---0--11--1---0------
---0-0123--0002-0---1-0-222-002---1-
00------2------1--------------1---0-
--0--------11------0----000-------00
----2-0-0---410-1--0-0---0--------0-
---0--00011-4-0-1-1-----0-0---0--10-
-0-211--0-0-----1--2----------------
----------------0--0---0------0-----
1-2-2----02--2000-----12-0----1---01
--0---------0-----11------------0---
-2--3-1-0-----1-----0-------1--12-2-
----00-1---01-10---------2-1--------
0---2-11010-01---000-1---------0-03-
------1-------20-------0--0-00------
---00---1-000--11-------0-012---0--2
-0-0-----211--00--1--0-0-0-0-2-0----
--01--1----1-11--------------------0
--------------0----0-----------110--
--------1--1---0---0--------0-010---
-----0-1--1---0---0--0-0-0-0-------0

Generation = 5, Population = 370.
-00---0-03---0--0-002--1---02---0---
0--0--00202---2-00-00--102--0--0--0-
110-01--42-1---1-000-01-333-11-1-020
11-0-00-30---0-----00-0-----0-20-0--
0--10-0---22--000-0100-01110--0--111
--0---101-0-5---20-1--0-010---0-----
-0010-------501----0-0-0-0-0-0-002-0
0----2--10100-00-1-30--00-0------00-
0010-0--00---00--0010--100---010--00
--3--0--1130-3---11--12---0--0200012
0-10--0-1000---22022--00-0--0-0-10-0
0--040-0-1-1-02---0--0---0---002---2
00-011-200-1-1-1000100--0-------00--
-0-230-2--10-20-11-1--00-000000--141
0--0-02--0-0--3--000-00--010-1201000
-00-1011-0-11002200--0-0-0-2-0---11-
0-0---0--322-----0-00---0-010-------
--1-01-1-2-2-22---00-0-0-0-0-0--000-
--00--0-0-----1---010-------0---2100
-----0---0--0-0-0--100-0-0----12---0
----0----0---0---0--0---------000-0-

Generation = 6, Population = 345.
-11--010----0--01011-112-111-1---00-
100-------3----0---1----1-----01--1-
221-1-1-532-00--0--1-1-0-44-222---31
2-11--------2---0001--1-----10----0-
1---10-----3--1--01-11-12221-0--0--2
0-10-0--2-106----10--0-----0--1-0-0-
-11-1-00-1--6---1-1-0-01-1----01--0-
10---300-1----11-204--01------0----0
--21--00110-----0112----110-0-2--01-
---221-02-4--4-0-222-2-200-0---11123
1----0-0--110--3-1-300-1-1-0------0-
---15-11--3---30-0-1-1-0-10--1132-23
---1-2-3--0----21112-----2110---1---
01-34113-121---1-2---1-10-11-1--225-
-0-1-1-1010--0--011----00121023-----
01-021-2--02--1----0-10-01--21-0----
-0-0-11304-3---0-1--10-0--1-12--1---
00-112--0303-3-0---1----0-01--10-1--
-0-1-1-2-0-00--000---0--------0--21-
--00-----101-01------1----0-00--0001
---0----011-------0-1--0-0---0-11---

*** Life<FredkinCell> 24x10 ***

Generation = 0, Population = 51.
--------0-
----00---0
------0-00
-------0--
-0--------
--0-00--00
----0-----
---0------
--------0-
--0------0
0---0-0---
----0-----
--0-----0-
-------0-0
-00----00-
----------
---0------
--0---000-
----------
--------0-
-000-00--0
-----0----
00----0---
-0-00----0

Generation = 1, Population = 110.
----00-0--
---011--01
----0--01-
-0-------0
0---00-000
-----10011
--0-1---00
--0-----0-
--00---0--
00-00-0---
-0001--0-0
0-00100-0-
-0-00-----
-0----01--
0110--0-1-
-000---00-
----0-000-
-0---01-10
--0---00--
-000-000--
01-1--10--
0-00010--0
1-000--0-0
-1-1100-0-

Generation = 2, Population = 99.
---------0
--01--00-2
-0--1-01-0
--0--0--01
---01-0-11
0-0-0--1-2
-01---0-1-
-0--0---1-
0---------
1--1---0-0
0-1-2-0-0-
------10--
-10----00-
----00-2--
1-2-001-20
--1---0-10
--0--0-11-
0----12--1
-01--01--0
--1--1-10-
-----02-00
-0--1--001
20--100-01
--0-2-10--

Generation = 3, Population = 124.
--00--0001
--12-1----
0-0--0--1-
----0-0--2
0-01-0-0-2
-010110--3
---0-0-02-
-1-0-00020
1--00--000
-0------0-
1--0--1---
00--10--0-
021000-110
00-0--0300
--3--1-0--
00-000102-
001001-2-0
----02---2
-1-001---1
--200--2-0
-10---3-1-
-1002101-2
3--02-----
0---30-1-0

Generation = 4, Population = 96.
-0--0-1--2
002--2-0-2
--1--1-1--
---------3
-0---1----
-12---11-4
----1----0
----0-----
-00-1-----
1-0-0-0-1-
201----0--
1--0----1-
1--11-0---
---1-01-1-
-1-0-2--20
----1---3-
-1-1-20311
0-0013201-
0-1---100-
-0-1----01
0-11--4--0
--113-120-
4---300---
11---1----

Generation = 5, Population = 124.
-1-0-0--03
11-2-301-3
0-2012-21-
-00----00-
01--1--0--
0-301-22-5
-010200021
-100-0---0
-1---00-0-
2---1--0-0
3---2---0-
---1--1--0
22122011--
000-0---2-
1--103-031
---0-01--0
--12--14-2
10-1-4--2-
11200--11-
0--20-----
-1-2-05-11
-1-2-12-1-
5-0--1--0-
-20--2----
