*** Life<ConwayCell> 14x10 ***

Generation = 0, Population = 15.
...*......
.*...*....
..........
.........*
*........*
..........
*.*..*....
.*........
........*.
.*........
*.....*...
..........
..........
...*......

Generation = 2, Population = 3.
..........
..........
..........
..........
..........
..........
***.......
..........
..........
..........
..........
..........
..........
..........

Generation = 4, Population = 3.
..........
..........
..........
..........
..........
..........
***.......
..........
..........
..........
..........
..........
..........
..........

Generation = 6, Population = 3.
..........
..........
..........
..........
..........
..........
***.......
..........
..........
..........
..........
..........
..........
..........

Generation = 8, Population = 3.
..........
..........
..........
..........
..........
..........
***.......
..........
..........
..........
..........
..........
..........
..........

Generation = 10, Population = 3.
..........
..........
..........
..........
..........
..........
***.......
..........
..........
..........
..........
..........
..........
..........

Generation = 12, Population = 3.
..........
..........
..........
..........
..........
..........
***.......
..........
..........
..........
..........
..........
..........
..........

*** Life<ConwayCell> 5x13 ***

Generation = 0, Population = 15.
...*.**....**
*.*...*..*..*
.*.*.......*.
.............
....*...*....

Generation = 3, Population = 14.
..****.....**
.*....*....**
..****.......
.............
.............

*** Life<ConwayCell> 14x4 ***

Generation = 0, Population = 7.
....
...*
....
....
..*.
..**
....
....
...*
....
...*
....
.*..
....

Generation = 1, Population = 4.
....
....
....
....
..**
..**
....
....
....
....
....
....
....
....

Generation = 2, Population = 4.
....
....
....
....
..**
..**
....
....
....
....
....
....
....
....

Generation = 3, Population = 4.
....
....
....
....
..**
..**
....
....
....
....
....
....
....
....

Generation = 4, Population = 4.
....
....
....
....
..**
..**
....
....
....
....
....
....
....
....

Generation = 5, Population = 4.
....
....
....
....
..**
..**
....
....
....
....
....
....
....
....

Generation = 6, Population = 4.
....
....
....
....
..**
..**
....
....
....
....
....
....
....
....

Generation = 7, Population = 4.
....
....
....
....
..**
..**
....
....
....
....
....
....
....
....

Generation = 8, Population = 4.
....
....
....
....
..**
..**
....
....
....
....
....
....
....
....

Generation = 9, Population = 4.
....
....
....
....
..**
..**
....
....
....
....
....
....
....
....

Generation = 10, Population = 4.
....
....
....
....
..**
..**
....
....
....
....
....
....
....
....

Generation = 11, Population = 4.
....
....
....
....
..**
..**
....
....
....
....
....
....
....
....

Generation = 12, Population = 4.
....
....
....
....
..**
..**
....
....
....
....
....
....
....
....

Generation = 13, Population = 4.
....
....
....
....
..**
..**
....
....
....
....
....
....
....
....

Generation = 14, Population = 4.
....
....
....
....
..**
..**
....
....
....
....
....
....
....
....

Generation = 15, Population = 4.
....
....
....
....
..**
..**
....
....
....
....
....
....
....
....

Generation = 16, Population = 4.
....
....
....
....
..**
..**
....
....
....
....
....
....
....
....

*** Life<ConwayCell> 3x12 ***

Generation = 0, Population = 16.
.....*...***
******....*.
*.*...*.*..*

Generation = 13, Population = 0.
............
............
............

*** Life<ConwayCell> 19x19 ***

Generation = 0, Population = 122.
*.***.....**.**.**.
**.**.**.***....*..
.......****.*..*.*.
...*.*...........**
..**..*..*.**....**
***.*..........**..
.**...*...*.*.**...
.**........*..*.*..
.**..*..*.*.....*.*
..***....**.**..*.*
.....*.......*.*...
**..**.**......*...
*.*..***...*.*...*.
.....*.*...*..*..*.
....**...*...**....
*...*.*...*.*......
*.*....*........***
**.*.*..*.....**...
................***

Generation = 1, Population = 125.
*.*.**...*.**..***.
**..****.....**....
..**.*.*.........**
..***.**....*......
.....*............*
*....*....*.******.
...........*.**....
*..*.....***.**.**.
....*.....*.**..*..
.*****...********..
.**..**.**..**.**..
**..*..**...*...*..
*...........*.*.*..
.......**.*...*....
....*.....*****....
.*.**.*......*...*.
*.******.......***.
***............*...
...............***.

Generation = 2, Population = 97.
*..**.......*****..
*......**...****..*
........*....*.....
..*....*.........**
...*.*.....**.****.
...........**..***.
.........*.........
.........*......**.
.*...*.............
.*....*.*........*.
......*..........*.
*.*..*****.**.*.**.
**.......*.*.......
.........**...*....
...***.*.****.*....
.*....**...*.*.*.*.
*.....**......**.*.
*.*.***.......*....
.*.............**..

Generation = 3, Population = 80.
............*...*..
.......**.......*..
........*...**...**
............****.**
...........****....
..........*****..*.
..........*....*...
...................
................**.
.....***...........
.*.......*.......**
*....*****.**...**.
**....**...***.*...
....*.......**.....
....**.*.*..*.**...
....*......*.*.*...
*............*.*...
*....***......*....
.*...*.........*...

*** Life<ConwayCell> 11x13 ***

Generation = 0, Population = 16.
.**..........
.............
...**........
....*.*.....*
.....*.......
..*..*....**.
.............
......*......
......*......
.............
.*.......*...

Generation = 14, Population = 10.
.............
.............
.............
...*.........
...**........
.............
....*..*.....
....*..*.....
.....***.....
.............
.............

*** Life<ConwayCell> 14x12 ***

Generation = 0, Population = 47.
...........*
....*.......
..*......**.
.*......*..*
..*...*...*.
.*..*...*..*
*...*...**..
.***.*..**..
...**..*....
*..*.*......
.*......**..
*.*....*....
..*****...*.
...*.**..*..

Generation = 1, Population = 52.
............
..........*.
.........**.
.**........*
.**....*.***
.*.*.*.**.*.
*...**.*..*.
.**..*.*.*..
.*...**.*...
..**....*...
***.....*...
..*.******..
.**....*....
..**..*.....

Generation = 2, Population = 53.
............
.........**.
.........***
.**.....*..*
*..*..**.*.*
**.*.*.*....
*..*.*.*..*.
***....*.*..
.*.****.**..
*..*....**..
....***.....
*....**..*..
.*..*.......
.***........

Generation = 3, Population = 50.
............
.........*.*
........*..*
.**....**..*
*..**.**..*.
**.*.*.*..*.
...*...*....
*......*.**.
...****...*.
..**....**..
....*.****..
......*.....
**.***......
.***........

Generation = 4, Population = 63.
............
..........*.
.......***.*
.***..*.****
*..***...***
**.*.*.**...
***.*..*.**.
...*.*.****.
..******..*.
..*.......*.
...*.**..*..
...*..*.*...
**.***......
**.*........

Generation = 5, Population = 47.
............
........***.
..*....*...*
.***.**.....
*....*.....*
.....*.*...*
*....*....*.
...........*
..*..*.*..**
..*....*.**.
..******.*..
...*..**....
**.*.*......
**.*........

Generation = 6, Population = 54.
.........*..
........***.
.***..*****.
.******.....
.**..*......
....**....**
......*...**
......*....*
......*.**.*
.**....*.*.*
..*.**...**.
.*.....**...
**.*..*.....
**..*.......

Generation = 7, Population = 51.
........***.
..*.........
.*....*...*.
*.......**..
.*..........
....***...**
......*.....
.....**..*.*
......*.**.*
.***.***...*
..**..**.**.
**.*******..
.......*....
***.........

Generation = 8, Population = 43.
.........*..
..........*.
.*.......*..
**.......*..
.....*...**.
.....**.....
....*..*...*
.....**.**..
..*.*...**.*
.*.***.....*
*........**.
.*.***...**.
...***.*....
.*..........

Generation = 9, Population = 53.
............
.........**.
**.......**.
**......**..
.....**..**.
....***...*.
....*..**...
...****..*..
..*...****..
.*****..*..*
**.......*.*
..**.**.***.
...*.**.....
....*.......

*** Life<ConwayCell> 9x20 ***

Generation = 0, Population = 20.
...*..*.............
.........**........*
...............*....
............*.......
...*...**.*...*...*.
.....*......*.......
....................
....*..........*....
*...........*.*.....

Generation = 6, Population = 0.
....................
....................
....................
....................
....................
....................
....................
....................
....................

*** Life<ConwayCell> 3x20 ***

Generation = 0, Population = 17.
....*.........*.*..*
*....*.....***....*.
*.**.*.....**.*.....

Generation = 7, Population = 0.
....................
....................
....................

Generation = 14, Population = 0.
....................
....................
....................

*** Life<ConwayCell> 20x16 ***

Generation = 0, Population = 23.
................
..............*.
.....**.........
*............*.*
......*.........
............*...
...*............
.....*........**
................
.....*.....*...*
..*..*..........
*...............
................
................
.........*....*.
................
......*.........
................
................
.*...*..........

Generation = 5, Population = 0.
................
................
................
................
................
................
................
................
................
................
................
................
................
................
................
................
................
................
................
................

*** Life<ConwayCell> 5x17 ***

Generation = 0, Population = 45.
.*.*.****.*****..
*.*.*...***.**.**
.*.......*..**.**
.**.******.**..**
*.*...**.*...*...

Generation = 16, Population = 6.
...............*.
..............*.*
..............*.*
...............*.
.................

*** Life<ConwayCell> 4x3 ***

Generation = 0, Population = 7.
*..
.**
.**
**.

Generation = 6, Population = 6.
.*.
*.*
*.*
.*.

Generation = 12, Population = 6.
.*.
*.*
*.*
.*.

Generation = 18, Population = 6.
.*.
*.*
*.*
.*.

*** Life<ConwayCell> 3x5 ***

Generation = 0, Population = 3.
.**..
.*...
.....

Generation = 9, Population = 4.
.**..
.**..
.....

*** Life<ConwayCell> 12x17 ***

Generation = 0, Population = 122.
.*.**.**....*.**.
*.*****.******...
..**.....******..
..***..*.****.*.*
**..*.*...***.*.*
*.*****....*.***.
*..*...*.*******.
.****.**.**.*****
.....******...***
..*.**.******...*
***.*****..******
...*..**.*.**.***

Generation = 3, Population = 29.
.................
.....**.**.....*.
.....***.....*.*.
.......***....*..
........***......
**......***......
*.*..............
*.*..............
*..*.............
.................
..*..............
.................

Generation = 6, Population = 12.
.................
.................
.................
.................
.................
***.....***......
*..*.............
*................
.***.............
.................
.................
.................

Generation = 9, Population = 16.
.................
.................
.................
.*...............
*.*......*.......
*........*.......
*.**.....*.......
*...*............
*..*.............
.*.*.............
.................
.................

Generation = 12, Population = 17.
.................
.................
.................
.................
..**.............
*.**....***......
*...*............
**.***...........
.*.*.............
.................
.................
.................

Generation = 15, Population = 16.
.................
.................
.................
.***.............
.*.......*.......
....*....*.......
.****....*.......
*.***............
.................
.................
.................
.................

*** Life<ConwayCell> 2x18 ***

Generation = 0, Population = 7.
....*....*.*.*....
.......*....*....*

Generation = 3, Population = 0.
..................
..................

Generation = 6, Population = 0.
..................
..................

Generation = 9, Population = 0.
..................
..................

Generation = 12, Population = 0.
..................
..................
